{
  "$schema": "http://json-schema.org/draft-04/schema#",
  "description": "Schema of Greengrassv2 userdata",
  "type": "object",
  "testData": {
    "TempResourcesDirOnDevice": {
      "type": "string",
      "description": "folder in DUT for device tester to read / write files without elevated privileges",
      "minLength": 1
    },
    "InstallationDirRootOnDevice": {
      "type": "string",
      "description": "path in DUT where device tester can install greengrass ",
      "minLength": 1
    },
    "GreengrassNucleusZip": {
      "type": "string",
      "description": "Path to Nucleus zip, not required if using PreInstalled",
      "minLength": 1
    },
    "PreInstalled": {
      "type": "string",
      "description": "Optional (default behaviour is no). yes/no string to signify if using preinstalled greengrass",
      "minLength": 1
    },
    "GreengrassV2TokenExchangeRole": {
      "type": "string",
      "description": "Pre-created GreengrassV2 token exchange role name",
      "minLength": 1
    }
  },
  "required": [
    "TempResourcesDirOnDevice"
  ]
}
